{"count":68,"next":"https://ll.thespacedevs.com/2.3.0/locations/?format=json&limit=1&offset=1&ordering=-total_launch_count","previous":null,"results":[{"response_mode":"normal","id":6,"url":"https://ll.thespacedevs.com/2.3.0/locations/6/?format=json","name":"Plesetsk Cosmodrome, Russian Federation","celestial_body":{"response_mode":"normal","id":1,"name":"Earth","type":{"id":1,"name":"Planet"},"diameter":12742000.0,"mass":5.972168e+24,"gravity":9.80655,"length_of_day":"1 00:00:00","atmosphere":true,"image":{"id":2040,"name":"Earth (Apollo 17)","image_url":"https://thespacedevs-prod.nyc3.digitaloceanspaces.com/media/images/earth_2528apol_image_20240402194304.jpeg","thumbnail_url":"https://thespacedevs-prod.nyc3.digitaloceanspaces.com/media/images/earth_2528apol_image_thumbnail_20240402194305.jpeg","credit":"NASA","license":{"id":4,"name":"NASA Image and Media Guidelines","priority":0,"link":"https://www.nasa.gov/nasa-brand-center/images-and-media/"},"single_use":true,"variants":[]},"description":"Earth is the third planet from the Sun and the only astronomical object known to harbor life.","wiki_url":"https://en.wikipedia.org/wiki/Earth","total_attempted_launches":7557,"successful_launches":7001,"failed_launches":556,"total_attempted_landings":1334,"successful_landings":1286,"failed_landings":48},"active":true,"country":{"id":5,"name":"Russia","alpha_2_code":"RU","alpha_3_code":"RUS","nationality_name":"Russian","nationality_name_composed":"Russo"},"description":"Plesetsk Cosmodrome is a Russian spaceport located in Mirny, Arkhangelsk Oblast, about 800 km north of Moscow and approximately 200 km south of Arkhangelsk. Originally developed as an ICBM site for the R-7 missile, it also served for numerous satellite launches using the R-7 and other rockets. Its high latitude makes it useful only for certain types of launches, especially the Molniya orbits, so for much of the site's history it functioned as a secondary location, with most orbital launches taking place from Baikonur, in the Kazakh SSR. With the end of the Soviet Union, Baikonur became a foreign territory, and Kazakhstan charged $115 million usage fees annually. Consequently, Plesetsk has seen considerably more activity since the 2000s.","image":{"id":1461,"name":"Soyuz 2.1b/Fregat-M liftoff from pad 43/3 (Glonass-K2 No. 13, Kosmos 2569)","image_url":"https://thespacedevs-prod.nyc3.digitaloceanspaces.com/media/images/soyuz25202.1b_image_20230807181912.jpg","thumbnail_url":"https://thespacedevs-prod.nyc3.digitaloceanspaces.com/media/images/255bauto255d__image_thumbnail_20240305192834.jpeg","credit":"Mil.ru","license":{"id":30,"name":"CC BY 4.0","priority":4,"link":"https://creativecommons.org/licenses/by/4.0/"},"single_use":false,"variants":[]},"map_image":"https://thespacedevs-prod.nyc3.digitaloceanspaces.com/media/map_images/location_6_20200803142434.jpg","longitude":40.577778,"latitude":62.925556,"timezone_name":"Europe/Moscow","total_launch_count":1685,"total_landing_count":0}]}